

namespace = colonial_culture

# Colonial Culture Change for non-adventurer spawnables, adventurers should use marcher.2 in AdventurerFormables
country_event = {
	id = colonial_culture.1
	title = colonial_culture.1.t
	desc = colonial_culture.1.d
	picture = EUROPEAN_REFUGEES_eventPicture
	
	trigger = {
		tag = G97 # Remove when more cultures are added
	
		has_country_flag = aelantir_spawnable
		NOT = { has_country_flag = new_colonial_culture }
		NOT = { has_country_modifier = pioneer_rush }
		
		num_of_cities = 5
		
		is_at_war = no
		is_vassal = no
	}
	
	mean_time_to_happen = {
		months = 200
		modifier = {
			factor = 0.7
			stability = 1
		}
		modifier = {
			factor = 0.25
			num_of_cities = 10
		}
		modifier = {
			factor = 0.1
			in_golden_age = yes
		}
	}
	
	option = { # Vanbury Guild
		name = colonial_culture.1.a
		trigger = {
			tag = G97
		}
		
		ai_chance = {
			factor = 1000
		}
		
		hidden_effect = {
			every_core_province = { 
				limit = {
					culture_group = ROOT
				}
				change_culture = vanburian
			}
		}
		
		if = {
			limit = { ruler_culture = ROOT }
			set_ruler_culture = vanburian
		}
		if = {
			limit = { has_heir = yes heir_culture = ROOT }
			set_heir_culture = vanburian
		}
		if = {
			limit = { has_consort = yes consort_culture = ROOT }
			set_consort_culture = vanburian
		}
		
		set_country_flag = new_colonial_culture
		
		change_primary_culture = vanburian
		
		add_country_modifier = {
			name = birth_of_a_new_people 
			duration = 3650
		}
	}
	
	option = { # Resist cultural change
		name = colonial_culture.1.b
		ai_chance = {
			factor = 1
		}
		
		add_prestige = -10
		
		set_country_flag = new_colonial_culture
	}
}