
###########################################################
# Events for the Clerical Estate
#
# written by Henrik Lohmander
###########################################################

namespace = church_estate_events

#Libertas Ecclesiae
#State making demands on the Church
#Christians
country_event = {
	id = church_estate_events.1
	title = church_estate_events.1.t
	desc = church_estate_events.1.d
	picture = CHURCH_ESTATE_1_eventPicture
	
	trigger = {
		has_estate = estate_church
		religion_group = christian
		estate_influence = {
			estate = estate_church
			influence = 25
		}
		NOT = {
			estate_influence = {
				estate = estate_church
				influence = 75
			}
		}
		NOT = {
			has_estate_influence_modifier = {
				estate = estate_church
				modifier = EST_VAL_DEMANDED_CHURCH_MONEY
			}
		}
		NOT = {
			has_estate_influence_modifier = {
				estate = estate_church
				modifier = EST_VAL_DIDNT_DEMAND_CHURCH_MONEY
			}
		}
		OR = {
			AND = {
				is_at_war = yes
				NOT = { war_score = 25 }
			}
			is_in_deficit = yes
			num_of_loans = 5
		}
	}
	
	is_triggered_only = yes
	
	mean_time_to_happen = {
		days = 1
	}
	
	option = {
		name = church_estate_events.1.a #Make it clear that they need to contribute.
		ai_chance = {
			factor = 50
			modifier = {
				factor = 0.5
				NOT = {
					estate_loyalty = {
						estate = estate_church
						loyalty = 45
					}
				}
			}
			modifier = {
				factor = 0.5
				estate_influence = {
					estate = estate_church
					influence = 60
				}
			}
		}
		add_estate_loyalty = {
			estate = estate_church
			loyalty = -15
		}
		add_patriarch_authority = -0.1
		add_papal_influence = -10
		add_years_of_income = 0.35
		add_estate_influence_modifier = {
			estate = estate_church
			desc = EST_VAL_DEMANDED_CHURCH_MONEY
			influence = -10
			duration = 9125
		}
	}
	option = {
		name = church_estate_events.1.b #We will find the money elsewhere.
		add_prestige = 5
		add_piety = 0.1
		ai_chance = {
			factor = 50
			modifier = {
				factor = 1.5
				NOT = {
					estate_loyalty = {
						estate = estate_church
						loyalty = 40
					}
				}
			}
			modifier = {
				factor = 1.5
				estate_influence = {
					estate = estate_church
					influence = 60
				}
			}
		}
		add_estate_loyalty = {
			estate = estate_church
			loyalty = 10
		}
		add_estate_influence_modifier = {
			estate = estate_church
			desc = EST_VAL_DIDNT_DEMAND_CHURCH_MONEY
			influence = 10
			duration = 9125
		}
	}
}

#State making demands on the Clergy
#Hindus
country_event = {
	id = church_estate_events.101
	title = church_estate_events.101.t
	desc = church_estate_events.101.d
	picture = CHURCH_ESTATE_2_eventPicture
	
	trigger = {
		has_estate = estate_church
		religion = hinduism
		estate_influence = {
			estate = estate_church
			influence = 25
		}
		NOT = {
			estate_influence = {
				estate = estate_church
				influence = 75
			}
		}
		NOT = {
			has_estate_influence_modifier = {
				estate = estate_church
				modifier = EST_VAL_DEMANDED_CHURCH_MONEY
			}
		}
		NOT = {
			has_estate_influence_modifier = {
				estate = estate_church
				modifier = EST_VAL_DIDNT_DEMAND_CHURCH_MONEY
			}
		}
		OR = {
			AND = {
				is_at_war = yes
				NOT = { war_score = 25 }
			}
			is_in_deficit = yes
			num_of_loans = 5
		}
	}
	
	is_triggered_only = yes
	
	mean_time_to_happen = {
		days = 1
	}
	
	option = {
		name = church_estate_events.1.a #Make it clear that they need to contribute.
		ai_chance = {
			factor = 50
			modifier = {
				factor = 0.5
				NOT = {
					estate_loyalty = {
						estate = estate_church
						loyalty = 45
					}
				}
			}
			modifier = {
				factor = 0.5
				estate_influence = {
					estate = estate_church
					influence = 60
				}
			}
		}
		add_estate_loyalty = {
			estate = estate_church
			loyalty = -15
		}
		add_years_of_income = 0.35
		add_estate_influence_modifier = {
			estate = estate_church
			desc = EST_VAL_DEMANDED_CHURCH_MONEY
			influence = -10
			duration = 9125
		}
	}
	option = {
		name = church_estate_events.1.b #We will find the money elsewhere.
		ai_chance = {
			factor = 50
			modifier = {
				factor = 1.5
				NOT = {
					estate_loyalty = {
						estate = estate_church
						loyalty = 40
					}
				}
			}
			modifier = {
				factor = 1.5
				estate_influence = {
					estate = estate_church
					influence = 60
				}
			}
		}
		add_prestige = 5
		add_estate_loyalty = {
			estate = estate_church
			loyalty = 10
		}
		add_estate_influence_modifier = {
			estate = estate_church
			desc = EST_VAL_DIDNT_DEMAND_CHURCH_MONEY
			influence = 10
			duration = 9125
		}
	}
}

#State making demands on the Clergy
#Polytheists
country_event = {
	id = church_estate_events.102
	title = church_estate_events.102.t
	desc = church_estate_events.102.d
	picture = CHURCH_ESTATE_2_eventPicture
	
	trigger = {
		has_estate = estate_church
		religion_group = pagan
		estate_influence = {
			estate = estate_church
			influence = 25
		}
		NOT = {
			estate_influence = {
				estate = estate_church
				influence = 75
			}
		}
		NOT = {
			has_estate_influence_modifier = {
				estate = estate_church
				modifier = EST_VAL_DEMANDED_CHURCH_MONEY
			}
		}
		NOT = {
			has_estate_influence_modifier = {
				estate = estate_church
				modifier = EST_VAL_DIDNT_DEMAND_CHURCH_MONEY
			}
		}
		OR = {
			AND = {
				is_at_war = yes
				NOT = { war_score = 25 }
			}
			is_in_deficit = yes
			num_of_loans = 5
		}
	}
	
	is_triggered_only = yes
	
	mean_time_to_happen = {
		days = 1
	}
	
	option = {
		name = church_estate_events.1.a #Make it clear that they need to contribute.
		ai_chance = {
			factor = 50
			modifier = {
				factor = 0.5
				NOT = {
					estate_loyalty = {
						estate = estate_church
						loyalty = 45
					}
				}
			}
			modifier = {
				factor = 0.5
				estate_influence = {
					estate = estate_church
					influence = 60
				}
			}
		}
		add_estate_loyalty = {
			estate = estate_church
			loyalty = -15
		}
		add_doom = 5
		add_authority = -10
		add_years_of_income = 0.35
		add_estate_influence_modifier = {
			estate = estate_church
			desc = EST_VAL_DEMANDED_CHURCH_MONEY
			influence = -10
			duration = 9125
		}
	}
	option = {
		name = church_estate_events.1.b #We will find the money elsewhere.
		ai_chance = {
			factor = 50
			modifier = {
				factor = 1.5
				NOT = {
					estate_loyalty = {
						estate = estate_church
						loyalty = 40
					}
				}
			}
			modifier = {
				factor = 1.5
				estate_influence = {
					estate = estate_church
					influence = 60
				}
			}
		}
		add_prestige = 5
		add_estate_loyalty = {
			estate = estate_church
			loyalty = 10
		}
		add_estate_influence_modifier = {
			estate = estate_church
			desc = EST_VAL_DIDNT_DEMAND_CHURCH_MONEY
			influence = 10
			duration = 9125
		}
	}
}

#State making demands on the Clergy
#Muslims
country_event = {
	id = church_estate_events.103
	title = church_estate_events.103.t
	desc = church_estate_events.103.d
	picture = CHURCH_ESTATE_2_eventPicture
	
	trigger = {
		has_estate = estate_church
		religion_group = muslim
		estate_influence = {
			estate = estate_church
			influence = 25
		}
		NOT = {
			estate_influence = {
				estate = estate_church
				influence = 75
			}
		}
		NOT = {
			has_estate_influence_modifier = {
				estate = estate_church
				modifier = EST_VAL_DEMANDED_CHURCH_MONEY
			}
		}
		NOT = {
			has_estate_influence_modifier = {
				estate = estate_church
				modifier = EST_VAL_DIDNT_DEMAND_CHURCH_MONEY
			}
		}
		OR = {
			AND = {
				is_at_war = yes
				NOT = { war_score = 25 }
			}
			is_in_deficit = yes
			num_of_loans = 5
		}
	}
	
	is_triggered_only = yes
	
	mean_time_to_happen = {
		days = 1
	}
	
	option = {
		name = church_estate_events.1.a #Make it clear that they need to contribute.
		ai_chance = {
			factor = 50
			modifier = {
				factor = 0.5
				NOT = {
					estate_loyalty = {
						estate = estate_church
						loyalty = 45
					}
				}
			}
			modifier = {
				factor = 0.5
				estate_influence = {
					estate = estate_church
					influence = 60
				}
			}
		}
		add_estate_loyalty = {
			estate = estate_church
			loyalty = -15
		}
		add_years_of_income = 0.35
		add_estate_influence_modifier = {
			estate = estate_church
			desc = EST_VAL_DEMANDED_CHURCH_MONEY
			influence = -10
			duration = 9125
		}
	}
	option = {
		name = church_estate_events.1.b #We will find the money elsewhere.
		ai_chance = {
			factor = 50
			modifier = {
				factor = 1.5
				NOT = {
					estate_loyalty = {
						estate = estate_church
						loyalty = 40
					}
				}
			}
			modifier = {
				factor = 1.5
				estate_influence = {
					estate = estate_church
					influence = 60
				}
			}
		}
		add_prestige = 5
		add_piety = -0.1
		add_estate_loyalty = {
			estate = estate_church
			loyalty = 10
		}
		add_estate_influence_modifier = {
			estate = estate_church
			desc = EST_VAL_DIDNT_DEMAND_CHURCH_MONEY
			influence = 10
			duration = 9125
		}
	}
}

#State making demands on the Clergy
#Everyone Else
country_event = {
	id = church_estate_events.104
	title = church_estate_events.104.t
	desc = church_estate_events.104.d
	picture = CHURCH_ESTATE_2_eventPicture
	
	trigger = {
		has_estate = estate_church
		NOT = { religion_group = muslim }
		NOT = { religion_group = christian }
		NOT = { religion_group = pagan }
		NOT = { religion = hinduism }
		NOT = { religion = buddhism }
		NOT = { religion = mahayana }
		NOT = { religion = vajrayana }
		estate_influence = {
			estate = estate_church
			influence = 25
		}
		NOT = {
			estate_influence = {
				estate = estate_church
				influence = 75
			}
		}
		NOT = {
			has_estate_influence_modifier = {
				estate = estate_church
				modifier = EST_VAL_DEMANDED_CHURCH_MONEY
			}
		}
		NOT = {
			has_estate_influence_modifier = {
				estate = estate_church
				modifier = EST_VAL_DIDNT_DEMAND_CHURCH_MONEY
			}
		}
		OR = {
			AND = {
				is_at_war = yes
				NOT = { war_score = 25 }
			}
			is_in_deficit = yes
			num_of_loans = 5
		}
	}
	
	is_triggered_only = yes
	
	mean_time_to_happen = {
		days = 1
	}
	
	option = {
		name = church_estate_events.1.a #Make it clear that they need to contribute.
		ai_chance = {
			factor = 50
			modifier = {
				factor = 0.5
				NOT = {
					estate_loyalty = {
						estate = estate_church
						loyalty = 45
					}
				}
			}
			modifier = {
				factor = 0.5
				estate_influence = {
					estate = estate_church
					influence = 60
				}
			}
		}
		add_estate_loyalty = {
			estate = estate_church
			loyalty = -15
		}
		add_years_of_income = 0.35
		add_estate_influence_modifier = {
			estate = estate_church
			desc = EST_VAL_DEMANDED_CHURCH_MONEY
			influence = -10
			duration = 9125
		}

		#Anbennar
		add_karma = 5
	}
	option = {
		name = church_estate_events.1.b #We will find the money elsewhere.
		ai_chance = {
			factor = 50
			modifier = {
				factor = 1.5
				NOT = {
					estate_loyalty = {
						estate = estate_church
						loyalty = 40
					}
				}
			}
			modifier = {
				factor = 1.5
				estate_influence = {
					estate = estate_church
					influence = 60
				}
			}
		}
		add_prestige = 5
		add_estate_loyalty = {
			estate = estate_church
			loyalty = 10
		}
		add_estate_influence_modifier = {
			estate = estate_church
			desc = EST_VAL_DIDNT_DEMAND_CHURCH_MONEY
			influence = 10
			duration = 9125
		}
	}
}

#State making demands on the Clergy
#Buddhists
country_event = {
	id = church_estate_events.105
	title = church_estate_events.105.t
	desc = church_estate_events.105.d
	picture = CHURCH_ESTATE_2_eventPicture
	
	trigger = {
		has_estate = estate_church
		OR = {
			religion = buddhism
			religion = mahayana
			religion = vajrayana
		}
		estate_influence = {
			estate = estate_church
			influence = 25
		}
		NOT = {
			estate_influence = {
				estate = estate_church
				influence = 75
			}
		}
		NOT = {
			has_estate_influence_modifier = {
				estate = estate_church
				modifier = EST_VAL_DEMANDED_CHURCH_MONEY
			}
		}
		NOT = {
			has_estate_influence_modifier = {
				estate = estate_church
				modifier = EST_VAL_DIDNT_DEMAND_CHURCH_MONEY
			}
		}
		OR = {
			AND = {
				is_at_war = yes
				NOT = { war_score = 25 }
			}
			is_in_deficit = yes
			num_of_loans = 5
		}
	}
	
	is_triggered_only = yes
	
	mean_time_to_happen = {
		days = 1
	}
	
	option = {
		name = church_estate_events.1.a #Make it clear that they need to contribute.
		ai_chance = {
			factor = 50
			modifier = {
				factor = 0.5
				NOT = {
					estate_loyalty = {
						estate = estate_church
						loyalty = 45
					}
				}
			}
			modifier = {
				factor = 0.5
				estate_influence = {
					estate = estate_church
					influence = 60
				}
			}
		}
		add_estate_loyalty = {
			estate = estate_church
			loyalty = -15
		}
		add_karma = -10
		add_years_of_income = 0.35
		add_estate_influence_modifier = {
			estate = estate_church
			desc = EST_VAL_DEMANDED_CHURCH_MONEY
			influence = -10
			duration = 9125
		}
	}
	option = {
		name = church_estate_events.1.b #We will find the money elsewhere.
		ai_chance = {
			factor = 50
			modifier = {
				factor = 1.5
				NOT = {
					estate_loyalty = {
						estate = estate_church
						loyalty = 40
					}
				}
			}
			modifier = {
				factor = 1.5
				estate_influence = {
					estate = estate_church
					influence = 60
				}
			}
		}
		add_prestige = 5
		add_karma = 10
		add_estate_loyalty = {
			estate = estate_church
			loyalty = 10
		}
		add_estate_influence_modifier = {
			estate = estate_church
			desc = EST_VAL_DIDNT_DEMAND_CHURCH_MONEY
			influence = 10
			duration = 9125
		}
	}
}

#Growing Influence of the Clergy
country_event = {
	id = church_estate_events.2
	title = church_estate_events.2.t
	desc = church_estate_events.2.d
	picture = CHURCH_ESTATE_1_eventPicture
	
	is_triggered_only = yes
	
	trigger = {
		has_estate = estate_church
		NOT = {
			has_estate_influence_modifier = {
				estate = estate_church
				modifier = EST_VAL_CHURCH_ADVANCE
			}
		}
		NOT = {
			has_estate_influence_modifier = {
				estate = estate_church
				modifier = EST_VAL_CHURCH_ADVANCE_20
			}
		}
		NOT = {
			has_estate_influence_modifier = {
				estate = estate_church
				modifier = EST_VAL_CHURCH_DECLINE
			}
		}
	}
	
	mean_time_to_happen = {
		days = 1
	}
	
	option = {
		name = church_estate_events.2.a #Ok
		add_estate_influence_modifier = {
			estate = estate_church
			desc = EST_VAL_CHURCH_ADVANCE
			influence = 10
			duration = 5475
		}
	}
}

#Declining Influence of the Clergy
country_event = {
	id = church_estate_events.3
	title = church_estate_events.3.t
	desc = church_estate_events.3.d
	picture = CHURCH_ESTATE_1_eventPicture
	
	is_triggered_only = yes
	
	trigger = {
		has_estate = estate_church
		NOT = {
			has_estate_influence_modifier = {
				estate = estate_church
				modifier = EST_VAL_CHURCH_ADVANCE
			}
		}
		NOT = {
			has_estate_influence_modifier = {
				estate = estate_church
				modifier = EST_VAL_CHURCH_ADVANCE_20
			}
		}
		NOT = {
			has_estate_influence_modifier = {
				estate = estate_church
				modifier = EST_VAL_CHURCH_DECLINE
			}
		}
	}
	
	mean_time_to_happen = {
		days = 1
	}
	
	option = {
		name = church_estate_events.3.a #Ok
		add_estate_influence_modifier = {
			estate = estate_church
			desc = EST_VAL_CHURCH_DECLINE
			influence = -10
			duration = 5475
		}
	}
}

#$ESTATE_CHURCH$ Questioned
country_event = {
	id = church_estate_events.4
	title = church_estate_events.4.t
	desc = {
		trigger = {
			has_estate = estate_burghers
		}
		desc = church_estate_events.4.d
	}
	desc = {
		trigger = {
			has_estate = estate_vaisyas
		}
		desc = church_estate_events.4.d.2
	}
	picture = CHURCH_ESTATE_1_eventPicture
	
	is_triggered_only = yes
	
	trigger = {
		has_estate = estate_church
		OR = {
			AND = {
				has_estate = estate_burghers
				estate_territory = {
					estate = estate_burghers
					territory = 1
				}
			}
			AND = {
				has_estate = estate_vaisyas
				estate_territory = {
					estate = estate_vaisyas
					territory = 1
				}
			}
		}
		NOT = {
			has_estate_influence_modifier = {
				estate = estate_church
				modifier = EST_VAL_TITHES_DEFENDED
			}
		}
		NOT = {
			has_estate_influence_modifier = {
				estate = estate_church
				modifier = EST_VAL_TITHES_UNDERMINED
			}
		}
	}
	
	mean_time_to_happen = {
		days = 1
	}
	
	option = {
		name = church_estate_events.4.a #Then we must force them to pay!
		ai_chance = {
			factor = 50
			modifier = {
				factor = 1.5
				NOT = {
					estate_loyalty = {
						estate = estate_church
						loyalty = 40
					}
				}
			}
			modifier = {
				factor = 0.5
				estate_influence = {
					estate = estate_church
					influence = 60
				}
			}
			modifier = {
				factor = 0.5
				has_estate = estate_burghers
				NOT = {
					estate_loyalty = {
						estate = estate_burghers
						loyalty = 40
					}
				}
			}
			modifier = {
				factor = 1.5
				has_estate = estate_burghers
				estate_influence = {
					estate = estate_burghers
					influence = 60
				}
			}
			modifier = {
				factor = 0.5
				has_estate = estate_vaisyas
				NOT = {
					estate_loyalty = {
						estate = estate_vaisyas
						loyalty = 40
					}
				}
			}
			modifier = {
				factor = 1.5
				has_estate = estate_vaisyas
				estate_influence = {
					estate = estate_vaisyas
					influence = 60
				}
			}
		}
		add_years_of_income = 0.2
		if = {
			limit = {
				has_estate = estate_burghers
				any_owned_province = {
					local_autonomy = 25
					OR = {	# previous conditions for assigning the burgher estate for a province
						owner = { government = republic }
						development = 10
						province_trade_power = 5
					}
				}
			}
			random_owned_province = {
				limit = {
					local_autonomy = 25
					OR = {
						owner = { government = republic }
						development = 10
						province_trade_power = 5
					}
				}
				add_local_autonomy = -25 #If a province with Burghers have more than 25 it will be reduced by this much or down to 25.
			}
		}
		if = {
			limit = {
				has_estate = estate_vaisyas
				any_owned_province = {
					local_autonomy = 25
					OR = {	# previous conditions for assigning the Visaiyas estate for a province
						owner = { government = republic }
						development = 7
						province_trade_power = 5
					}
				}
			}
			random_owned_province = {
				limit = {
					local_autonomy = 25
					OR = {
						owner = { government = republic }
						development = 7
						province_trade_power = 5
					}
				}
				add_local_autonomy = -25 #If a province with Burghers have more than 25 it will be reduced by this much or down to 25.
			}
		}
		add_estate_loyalty = {
			estate = estate_church
			loyalty = 15
		}
		if = {
			limit = {
				has_estate = estate_burghers
			}
			add_estate_loyalty = {
				estate = estate_burghers
				loyalty = -15
			}
		}
		if = {
			limit = {
				has_estate = estate_vaisyas
			}
			add_estate_loyalty = {
				estate = estate_vaisyas
				loyalty = -15
			}
		}
		add_estate_influence_modifier = {
			estate = estate_church
			desc = EST_VAL_TITHES_DEFENDED
			influence = 10
			duration = 5475
		}
		if = {
			limit = {
				has_estate = estate_burghers
			}
			add_estate_influence_modifier = {
				estate = estate_burghers
				desc = EST_VAL_TITHES_DEFENDED
				influence = -10
				duration = 5475
			}
		}
		if = {
			limit = {
				has_estate = estate_vaisyas
			}
			add_estate_influence_modifier = {
				estate = estate_vaisyas
				desc = EST_VAL_TITHES_DEFENDED
				influence = -10
				duration = 5475
			}
		}
	}
	option = {
		name = church_estate_events.4.b #A mild reprimand will be enough.
		ai_chance = {
			factor = 50
			modifier = {
				factor = 0.5
				NOT = {
					estate_loyalty = {
						estate = estate_church
						loyalty = 40
					}
				}
			}
			modifier = {
				factor = 1.5
				estate_influence = {
					estate = estate_church
					influence = 60
				}
			}
		}
		add_estate_loyalty = {
			estate = estate_church
			loyalty = -15
		}
		add_estate_influence_modifier = {
			estate = estate_church
			desc = EST_VAL_TITHES_UNDERMINED
			influence = -10
			duration = 5475
		}
	}
}


#Disloyal Clergy
country_event = {
	id = church_estate_events.5
	title = church_estate_events.5.t
	desc = church_estate_events.5.d
	picture = CHURCH_ESTATE_UPSET_eventPicture
	
	is_triggered_only = yes
	
	trigger = {
		has_estate = estate_church
		NOT = {
			estate_loyalty = {
				estate = estate_church
				loyalty = 30
			}
		}
		any_owned_province = {
			religion = root
			is_capital = no
			is_city = yes
		}
		estate_territory = { 
			estate = estate_church
			territory = 10
		}
	}
	
	immediate = {
		hidden_effect = {
			while = {
				limit = {
					NOT = { 
						development_in_provinces = {
							has_province_flag = peasant_clergy_revolt
							value = estate
							estate = estate_church
						}
					}
					any_owned_province = {
						religion = root
						is_capital = no
						is_city = yes
						NOT = { has_province_flag = peasant_clergy_revolt }
					}
					check_reducing_estate_revolt_size_trigger = {
						FLAG = peasant_clergy_revolt
					}
				}
				random_owned_province = {
					limit = {
						religion = root
						is_capital = no
						is_city = yes
						NOT = { has_province_flag = peasant_clergy_revolt }
					}
					set_province_flag = peasant_clergy_revolt
				}
			}
		}
	}
	
	mean_time_to_happen = {
		days = 1
	}
	
	option = {
		name = church_estate_events.5.a #Ok
		add_stability = -1
		if = {
			limit = { any_owned_province = { is_core = ROOT } }
			every_owned_province = {
				limit = { has_province_flag = peasant_clergy_revolt }
				clr_province_flag = peasant_clergy_revolt
				spawn_rebels = {
					type = anti_tax_rebels
					size = 1
				}
			}
		}

		
		#Anbennar
		add_karma = -10
	}
}

#Demands of influential Clergy
country_event = {
	id = church_estate_events.6
	title = church_estate_events.6.t
	desc = church_estate_events.6.d
	picture = CHURCH_ESTATE_UPSET_eventPicture
	
	is_triggered_only = yes
	
	trigger = {
		has_estate = estate_church
		estate_influence = {
			estate = estate_church
			influence = 70
		}
		NOT = {
			has_estate_influence_modifier = {
				estate = estate_church
				modifier = EST_VAL_ACCEPTED_HOLY_LAW
			}
		}
		NOT = {
			has_estate_influence_modifier = {
				estate = estate_church
				modifier = EST_VAL_REJECTED_HOLY_LAW
			}
		}
	}
	
	mean_time_to_happen = {
		days = 1
	}
	
	option = {
		name = church_estate_events.6.a #Agree
		ai_chance = {
			factor = 25
		}
		add_country_modifier = {
			name = "religious_court_life"
			duration = 5475
		}
		add_estate_influence_modifier = {
			estate = estate_church
			desc = EST_VAL_ACCEPTED_HOLY_LAW
			influence = 10
			duration = 5475
		}

		
		#Anbennar
		add_karma = 10
	}
	option = {
		name = church_estate_events.6.b #Disagree
		ai_chance = {
			factor = 75
			modifier = {
				factor = 0.2
				NOT = {
					estate_loyalty = {
						estate = estate_church
						loyalty = 45
					}
				}
			}
			modifier = {
				factor = 1.5
				estate_influence = {
					estate = estate_church
					influence = 60
				}
			}
		}
		add_stability = -1
		add_estate_loyalty = {
			estate = estate_church
			loyalty = -20
		}
		add_estate_influence_modifier = {
			estate = estate_church
			desc = EST_VAL_REJECTED_HOLY_LAW
			influence = -10
			duration = 5475
		}
	}
}

#Bonus for strong and loyal Clergy
country_event = {
	id = church_estate_events.7
	title = church_estate_events.7.t
	desc = church_estate_events.7.d
	picture = CHURCH_ESTATE_1_eventPicture
	
	is_triggered_only = yes
	
	trigger = {
		has_estate = estate_church
		estate_loyalty = {
			estate = estate_church
			loyalty = 70
		}
		estate_influence = {
			estate = estate_church
			influence = 70
		}
	}
	
	immediate = {
		hidden_effect = {
			if = {
				limit = { NOT = { stability = 3 } }
				random_list = {
					65 = { set_country_flag = loyalty_to_the_crown }
					35 = { set_country_flag = efficient_administration }
				}
			}
			if = {
				limit = { stability = 3 }
				set_country_flag = loyalty_to_the_crown
			}
		}
	}
	
	mean_time_to_happen = {
		days = 1
	}
	
	option = {
		name = church_estate_events.7.a #Agree
		trigger_switch = {
			on_trigger = has_country_flag
			loyalty_to_the_crown = {
				add_legitimacy = 15
				add_horde_unity = 15
				add_republican_tradition = 7
				add_devotion = 7
				add_authority = 15
				add_piety = 0.15
				add_papal_influence = 10
				add_patriarch_authority = 0.1
				clr_country_flag = loyalty_to_the_crown
			}
			efficient_administration = {
				add_stability_or_adm_power = yes
				clr_country_flag = efficient_administration
			}
		}
	}
}

#Land Theft
country_event = {
	id = church_estate_events.8
	title = church_estate_events.8.t
	desc = church_estate_events.8.d
	picture = CHURCH_ESTATE_1_eventPicture
	
	is_triggered_only = yes
	
	trigger = {
		has_estate = estate_church
		has_estate = estate_nobles
		crown_land_share = 10
		NOT = {
			has_estate_influence_modifier = {
				estate = estate_church
				modifier = EST_VAL_CHURCH_PROPERTIES_DEFENDED
			}
		}
		NOT = {
			has_estate_influence_modifier = {
				estate = estate_church
				modifier = EST_VAL_LAND_THEFT
			}
		}
	}
	
	mean_time_to_happen = {
		days = 1
	}
	
	option = {
		name = church_estate_events.8.a #Side with the $ESTATE_CHURCH$.
		ai_chance = {
			factor = 50
			modifier = {
				factor = 1.5
				NOT = {
					estate_loyalty = {
						estate = estate_church
						loyalty = 45
					}
				}
			}
			modifier = {
				factor = 0.5
				NOT = {
					estate_loyalty = {
						estate = estate_nobles
						loyalty = 40
					}
				}
			}
			modifier = {
				factor = 0.5
				estate_influence = {
					estate = estate_church
					influence = 60
				}
			}
			modifier = {
				factor = 1.5
				estate_influence = {
					estate = estate_nobles
					influence = 60
				}
			}
		}
		scaled_estate_church_land_share_effect = yes
		add_estate_loyalty = {
			estate = estate_church
			loyalty = 15
		}
		add_estate_loyalty = {
			estate = estate_nobles
			loyalty = -15
		}
		add_estate_influence_modifier = {
			estate = estate_church
			desc = EST_VAL_CHURCH_PROPERTIES_DEFENDED
			influence = 10
			duration = 5475
		}
		add_estate_influence_modifier = {
			estate = estate_nobles
			desc = EST_VAL_CHURCH_PROPERTIES_DEFENDED
			influence = -10
			duration = 5475
		}
	}
	option = {
		name = church_estate_events.8.b #Side with the $ESTATE_NOBLES$.
		ai_chance = {
			factor = 50
			modifier = {
				factor = 0.5
				NOT = {
					estate_loyalty = {
						estate = estate_church
						loyalty = 45
					}
				}
			}
			modifier = {
				factor = 1.5
				NOT = {
					estate_loyalty = {
						estate = estate_nobles
						loyalty = 40
					}
				}
			}
			modifier = {
				factor = 1.5
				estate_influence = {
					estate = estate_church
					influence = 60
				}
			}
			modifier = {
				factor = 0.5
				estate_influence = {
					estate = estate_nobles
					influence = 60
				}
			}
		}
		scaled_estate_nobles_land_share_effect = yes
		add_estate_loyalty = {
			estate = estate_church
			loyalty = -15
		}
		add_estate_loyalty = {
			estate = estate_nobles
			loyalty = 15
		}
		add_estate_influence_modifier = {
			estate = estate_church
			desc = EST_VAL_LAND_THEFT
			influence = -10
			duration = 5475
		}
		add_estate_influence_modifier = {
			estate = estate_nobles
			desc = EST_VAL_LAND_THEFT
			influence = 10
			duration = 5475
		}
	}
	option = {
		name = church_estate_events.8.c #Favor neither to retain control of province.
		ai_chance = {
			factor = 50
			modifier = {
				factor = 0.5
				NOT = {
					estate_loyalty = {
						estate = estate_church
						loyalty = 45
					}
				}
			}
			modifier = {
				factor = 0.5
				NOT = {
					estate_loyalty = {
						estate = estate_nobles
						loyalty = 40
					}
				}
			}
			modifier = {
				factor = 1.5
				estate_influence = {
					estate = estate_church
					influence = 60
				}
			}
			modifier = {
				factor = 1.5
				estate_influence = {
					estate = estate_nobles
					influence = 60
				}
			}
		}
		add_estate_loyalty = {
			estate = estate_church
			loyalty = -15
		}
		add_estate_loyalty = {
			estate = estate_nobles
			loyalty = -15
		}
		add_estate_influence_modifier = {
			estate = estate_church
			desc = EST_VAL_LAND_THEFT
			influence = -10
			duration = 5475
		}
		add_estate_influence_modifier = {
			estate = estate_nobles
			desc = EST_VAL_LAND_THEFT
			influence = -10
			duration = 5475
		}
	}
}

#Popular Religion
#Sufis
country_event = {
	id = church_estate_events.9
	title = church_estate_events.9.t
	desc = church_estate_events.9.d
	picture = CHURCH_ESTATE_2_eventPicture
	
	is_triggered_only = yes
	
	trigger = {
		has_estate = estate_church
		has_estate = estate_nobles
		NOT = { religion = confucianism }
		any_owned_province = {
			has_owner_religion = no
			is_city = yes
		}
		NOT = {
			has_estate_influence_modifier = {
				estate = estate_church
				modifier = EST_VAL_FOUGHT_SYNCRETISM
			}
		}
		NOT = {
			has_estate_influence_modifier = {
				estate = estate_church
				modifier = EST_VAL_SYNCRETISM
			}
		}
	}
	
	mean_time_to_happen = {
		days = 1
	}
	
	option = {
		name = church_estate_events.9.a #
		ai_chance = {
			factor = 50
			modifier = {
				factor = 1.5
				NOT = {
					estate_loyalty = {
						estate = estate_church
						loyalty = 40
					}
				}
			}
			modifier = {
				factor = 0.5
				estate_influence = {
					estate = estate_church
					influence = 60
				}
			}
		}
		add_country_modifier = {
			name = "campaign_against_syncretism"
			duration = 5475
		}
		add_estate_loyalty = {
			estate = estate_church
			loyalty = 15
		}
		add_estate_influence_modifier = {
			estate = estate_church
			desc = EST_VAL_FOUGHT_SYNCRETISM
			influence = 10
			duration = 5475
		}
		add_estate_dhimmi_loyalty_effect = yes

		
		#Anbennar
		add_karma = -5
	}
	option = {
		name = church_estate_events.9.b #
		ai_chance = {
			factor = 50
			modifier = {
				factor = 0.5
				NOT = {
					estate_loyalty = {
						estate = estate_church
						loyalty = 40
					}
				}
			}
			modifier = {
				factor = 1.5
				estate_influence = {
					estate = estate_church
					influence = 65
				}
			}
		}
		add_country_modifier = {
			name = "missionary_syncretism"
			duration = 5475
		}
		add_estate_loyalty = {
			estate = estate_church
			loyalty = -15
		}
		add_estate_influence_modifier = {
			estate = estate_church
			desc = EST_VAL_SYNCRETISM
			influence = -10
			duration = 5475
		}
		reduce_estate_dhimmi_loyalty_effect = yes

		
		#Anbennar
		add_karma = 5
	}
}

#How independent are the Clergy?
country_event = {
	id = church_estate_events.10
	title = church_estate_events.10.t
	desc = church_estate_events.10.d
	picture = CHURCH_ESTATE_1_eventPicture
	
	is_triggered_only = yes
	
	trigger = {
		has_estate = estate_church
		NOT = {
			has_estate_influence_modifier = {
				estate = estate_church
				modifier = EST_VAL_INDEPENDENT_CHURCH
			}
		}
		NOT = {
			has_estate_influence_modifier = {
				estate = estate_church
				modifier = EST_VAL_MEDDLING_IN_CHURCH_MATTERS
			}
		}
	}
	
	mean_time_to_happen = {
		days = 1
	}
	
	option = {
		name = church_estate_events.10.a #Do not meddle in the affairs of the $ESTATE_CHURCH$.
		ai_chance = {
			factor = 50
			modifier = {
				factor = 0.5
				estate_influence = {
					estate = estate_church
					influence = 65
				}
			}
		}
		add_estate_influence_modifier = {
			estate = estate_church
			desc = EST_VAL_INDEPENDENT_CHURCH
			influence = 10
			duration = 5475
		}
	}
	option = {
		name = church_estate_events.10.b #Support the younger Candidate.
		add_years_of_income = -0.25
		add_prestige = -10
		ai_chance = {
			factor = 50
			modifier = {
				factor = 1.5
				estate_influence = {
					estate = estate_church
					influence = 65
				}
			}
		}
		add_estate_loyalty = {
			estate = estate_church
			loyalty = 10
		}
		add_estate_influence_modifier = {
			estate = estate_church
			desc = EST_VAL_MEDDLING_IN_CHURCH_MATTERS
			influence = -10
			duration = 5475
		}
	}
}

# Local Revolt
province_event = {
	id = church_estate_events.11
	title = church_estate_events.11.t
	desc = church_estate_events.11.d
	picture = CHURCH_ESTATE_UPSET_eventPicture
	
	is_triggered_only = yes

	
	option = {
		name = church_estate_events.11.a #
	}
}