

namespace = orc_slavery

province_event = { # Orcish slaves grow in Aelantir
	id = orc_slavery.1
	title = orc_slavery.1.t
	desc = orc_slavery.1.d
	picture = COLONIZATION_eventPicture
	goto = root
	
	trigger = {
		owner = {
			has_country_modifier = orcish_slaves_in_colonies
		}
		has_orcish_minority_trigger = no
		has_orcish_majority_trigger = no
		
		OR = {
			continent = south_america
			continent = north_america
		}
		
		OR = {
			province_with_farm_goods = yes
			province_with_mineable_goods = yes
		}
		
		is_city = yes
	}

	mean_time_to_happen = {
		years = 5
		
		modifier = {
			factor = 2
			owner = {
				OR = {	#these guys didnt do it as much
					technology_group = tech_salahadesi
					technology_group = tech_bulwari
					technology_group = tech_elven
					technology_group = tech_east_elven
				}
			}
		}
		
		modifier = {
			factor = 0.9
			current_age = age_of_reformation
		}
		modifier = {
			factor = 0.75
			is_prosperous = yes
		}
		modifier = {
			factor = 0.75
			development = 10
		}
		
		modifier = {
			factor = 2
			has_large_orcish_minority_trigger = yes
		}
		
		modifier = {
			factor = 2
			unrest = 2
		}
		modifier = {
			factor = 2
			unrest = 4
		}
		modifier = {
			factor = 2
			unrest = 6
		}
		modifier = {
			factor = 2
			unrest = 8
		}
		modifier = {
			factor = 5
			unrest = 10
		}
	}
	is_mtth_scaled_to_size = 1

	option = { # Add slave pops
		name = orc_slavery.1.a
		ai_chance = {
			factor = 1
		}
		add_permanent_province_modifier = {
			name = orcish_slave_boom
			duration = 9125
		}
		random_list = {
			33 = {  }
			33 = { add_base_tax = 1 }
			33 = { add_base_production = 1 }
		}
		add_orcish_minority_size_effect = yes
		owner = {
			small_decrease_of_orcish_tolerance_effect = yes
		}
	}
}


province_event = { # Province dev boost due to slaves
	id = orc_slavery.2
	title = orc_slavery.2.t
	desc = orc_slavery.2.d
	picture = FARMING_eventPicture
	goto = root
	
	trigger = {
		#Either its a aelantir prov with orc minority OR its a escann prov with slaves
		OR = {
			AND = {
				owner = {
					has_country_modifier = orcish_slaves_in_colonies
				}
				OR = {
					continent = south_america
					continent = north_america
				}
			}
			AND = {
				superregion = escann_superregion
				trade_goods = slaves
			}
		}
		
		has_orcish_minority_trigger = yes
		NOT = {
			has_province_modifier = orcish_slave_boom
		}

	}

	mean_time_to_happen = {
		years = 10
		
		modifier = {
			factor = 0.8
			is_prosperous = yes
		}
	}
	is_mtth_scaled_to_size = 1

	option = { #Great
		name = orc_slavery.2.a
		ai_chance = {
			factor = 1
		}
		random_list = {
			20 = {  }
			40 = { add_base_tax = 1 }
			40 = { add_base_production = 1 }
		}
	}
}


province_event = { # Orcish Turmoil
	id = orc_slavery.3
	title = orc_slavery.3.t
	desc = orc_slavery.3.d
	picture = NATIVES_eventPicture
	goto = root
	
	trigger = {
		OR = {
			continent = south_america
			continent = north_america
		}
		owner = {
			has_country_modifier = orcish_slaves_in_colonies
		}
		has_orcish_minority_trigger = yes
	}

	mean_time_to_happen = {
		years = 10
		
		modifier = {
			factor = 0.75
			has_large_orcish_minority_trigger = yes
		}
		modifier = {
			factor = 0.9
			unrest = 2
		}
		modifier = {
			factor = 0.9
			unrest = 4
		}
		modifier = {
			factor = 0.9
			unrest = 6
		}
		modifier = {
			factor = 0.9
			unrest = 8
		}
		modifier = {
			factor = 0.5
			unrest = 10
		}
	}
	is_mtth_scaled_to_size = 1

	option = { # 
		name = orc_slavery.3.a
		ai_chance = {
			factor = 1
		}
		add_devastation = 20
		remove_orcish_minority_size_effect = yes
		owner = {
			medium_decrease_of_orcish_tolerance_effect = yes
		}
	}
	option = { # 
		name = orc_slavery.3.b
		ai_chance = {
			factor = 1
		}
		random_list = {
			20 = {  }
			40 = { add_base_tax = -1 }
			40 = { add_base_production = -1 }
		}
		
		owner = {
			small_decrease_of_orcish_tolerance_effect = yes
		}
	}
}


province_event = { #Orc Slave Trade Good
	id = orc_slavery.4
	title = orc_slavery.4.t
	desc = {
	   trigger = { NOT = { has_global_flag = orcish_slave_trade_banned_in_cannor } }
	   desc = orc_slavery.4.d
	}
	desc = {
	   trigger = { has_global_flag = orcish_slave_trade_banned_in_cannor }
	   desc = orc_slavery.4.da
	}
	picture = STREET_SPEECH_eventPicture
	goto = root
	
	trigger = {
		REB = {
			NOT = {
				check_variable = {
					which = num_orc_slaves
					value = 30
				}
			}
		}
		owner = {
			has_country_modifier = orcish_slaves_in_colonies
		}
		development = 10
		
		NOT = { trade_goods = slaves }
		OR = {
			continent = south_america
			continent = north_america
		}
		has_orcish_minority_trigger = yes

	}

	mean_time_to_happen = {
		years = 25
		modifier = {
			factor = 0.5
			has_global_flag = orcish_slave_trade_banned_in_cannor
		}
		modifier = {
			factor = 0.8
			is_prosperous = yes
		}
		modifier = {
			factor = 0.75
			development = 20
		}
		modifier = {
			factor = 1.5
			owner = {
				num_of_owned_provinces_with = {
					value = 1
					trade_goods = slaves
				}
			}
		}
		modifier = {
			factor = 10
			owner = {
				num_of_owned_provinces_with = {
					value = 5
					trade_goods = slaves
				}
			}
		}
	}
	is_mtth_scaled_to_size = 1

	option = { # 
		name = orc_slavery.4.a
		ai_chance = {
			factor = 5
		}
		change_trade_goods = slaves
		add_permanent_province_modifier = {
			name = orcish_slave_boom
			duration = 9125
		}
		random_list = {
			50 = { add_base_tax = 1 }
			50 = { add_base_production = 1 }
		}
		add_orcish_minority_size_effect = yes
		
		owner = {
			large_decrease_of_orcish_tolerance_effect = yes
		}
		set_add_orc_slaves_count = yes
	}
	option = { # just sell em dude
		name = orc_slavery.4.b
		ai_chance = {
			factor = 1
		}
		owner = {
			add_years_of_income = 0.5
			medium_decrease_of_orcish_tolerance_effect = yes
		}
	}
}


#Escann: Reparation Through Slavery - create orc slave trade good for non orcs
province_event = {
	id = orc_slavery.5
	title = orc_slavery.5.t
	desc = orc_slavery.5.d
	picture = STREET_SPEECH_eventPicture
	goto = root
	
	trigger = {
		has_global_flag = green_slave_demand
		REB = {
			NOT = {
				check_variable = {
					which = num_orc_slaves
					value = 20
				}
			}
		}
		
		is_city = yes
		
		owner = {
			NOT = { has_country_modifier = orcish_administration }
			NOT = { has_country_modifier = goblin_administration }
		}
		
		superregion = escann_superregion
		
		NOT = { trade_goods = slaves }
		
		OR = {
			has_orcish_minority_trigger = yes
			has_orcish_majority_trigger = yes
		}
		
		province_with_urban_goods = no
		
		NOT = { has_global_flag = orcish_slave_trade_banned_in_cannor }
	}

	mean_time_to_happen = {
		months = 120
		
		modifier = {
			factor = 0.75
			current_age = age_of_reformation
		}
		
		modifier = {
			factor = 2
			REB = {
				check_variable = {
					which = num_orc_slaves
					value = 5
				}
			}
		}
	
		modifier = {
			factor = 5
			REB = {
				check_variable = {
					which = num_orc_slaves
					value = 10
				}
			}
		}
	}
	is_mtth_scaled_to_size = 1

	option = { # Justice and Profit
		name = orc_slavery.5.a
		ai_chance = {
			factor = 5
		}
		change_trade_goods = slaves
		add_base_production = 1
		
		owner = {
			add_years_of_income = 0.25
			
			add_faction_influence = {
				faction = adv_fortune_seekers
				influence = 20
			}
			
			large_decrease_of_orcish_tolerance_effect = yes
		}
		set_add_orc_slaves_count = yes
	}
	
	option = { # This is wrong.
		name = orc_slavery.5.b
		ai_chance = {
			factor = 1
			
			modifier = {
				factor = 100
				owner = {
					OR = {
						ruler_has_personality =  kind_hearted_personality
						ruler_has_personality = tolerant_personality
						ruler_has_personality = benevolent_personality
					}
				}
			}
		}
		owner = {
			add_prestige = 5
		}
	}
}


#Escann: Chains For The Vanquished - create orc slave trade good for non orcs
province_event = {
	id = orc_slavery.6
	title = orc_slavery.6.t
	desc = orc_slavery.6.d
	picture = NATIVES_eventPicture
	goto = root
	
	trigger = {
		has_global_flag = green_slave_demand
		REB = {
			NOT = {
				check_variable = {
					which = num_orc_slaves
					value = 20
				}
			}
		}
		
		is_city = yes
		owner = {
			OR = {
				has_country_modifier = orcish_administration
				has_country_modifier = goblin_administration
			}

		}
		
		superregion = escann_superregion
		
		NOT = { trade_goods = slaves }
		
		OR = {
			has_orcish_minority_trigger = yes
			has_orcish_majority_trigger = yes
		}
		
		province_with_urban_goods = no
		
		NOT = { has_global_flag = orcish_slave_trade_banned_in_cannor }
	}

	mean_time_to_happen = {
		months = 120
		
		modifier = {
			factor = 0.75
			current_age = age_of_reformation
		}
	
		modifier = {
			factor = 2
			REB = {
				check_variable = {
					which = num_orc_slaves
					value = 5
				}
			}
		}
	
		modifier = {
			factor = 5
			REB = {
				check_variable = {
					which = num_orc_slaves
					value = 10
				}
			}
		}
	}
	is_mtth_scaled_to_size = 1

	option = { # The Weak Deserve Nothing Less
		name = orc_slavery.6.a
		ai_chance = {
			factor = 5
		}
		change_trade_goods = slaves
		
		owner = {
			add_years_of_income = 0.5
		}
		
		set_add_orc_slaves_count = yes
	}
	
	option = { # We must be united in these dark times
		name = orc_slavery.6.b
		ai_chance = {
			factor = 1
		}
		
		owner = {
			add_prestige = 5
		}
	}
}

#Escann: Orcish Slavery Dwindles (slave trade banned)
province_event = {
	id = orc_slavery.7
	title = orc_slavery.7.t
	desc = orc_slavery.7.d
	picture = STREET_SPEECH_eventPicture
	goto = root
	
	trigger = {
		has_global_flag = orcish_slave_trade_banned_in_cannor
		superregion = escann_superregion
		trade_goods = slaves
		is_city = yes

	}

	mean_time_to_happen = {
		months = 240
		
		modifier = {
			factor = 0.75
			religion = corinite
		}
	
		modifier = {
			factor = 0.75
			owner = {
				num_of_owned_provinces_with = {
					value = 10
					trade_goods = slaves
				}
			}
		}
		
		modifier = {
			factor = 0.25
			owner = {
				num_of_owned_provinces_with = {
					value = 20
					trade_goods = slaves
				}
			}
		}
		
		modifier = {
			factor = 0.5
			is_year = 1650
		}
		
		modifier = {
			factor = 0.33
			is_year = 1680
		}
	}
	is_mtth_scaled_to_size = 1

	option = { # Help them out
		name = orc_slavery.7.a
		ai_chance = {
			factor = 5
			
			modifier = {
				factor = 10
				owner = {
					OR = {
						ruler_has_personality = cruel_personality
						ruler_has_personality = malevolent_personality
						ruler_has_personality = sinner_personality
					}
				}
			}
		}
		
		owner = {
			add_years_of_income = -0.5
		}

	}
	
	option = { # Thats just how it goes
		name = orc_slavery.7.b
		ai_chance = {
			factor = 50
		}
		
		change_trade_goods = unknown
		
		if = {
			limit = {
				OR = {
					NOT = { owner = { has_country_modifier = orcish_administration } }
				}
				has_orcish_majority_trigger = yes
			}
			change_culture = ROOT
			change_religion = ROOT
		}
		
		hidden_effect = {
			REB = {
				subtract_variable = {
					which = num_orc_slaves
					value = 1
				}
			}
		}
	}
	
}


#Orcish Slavery Sold (expulsion)
province_event = {
	id = orc_slavery.71
	title = orc_slavery.71.t
	desc = orc_slavery.71.d
	picture = OVEREXTENSION_eventPicture
	goto = root
	
	trigger = {
		trade_goods = slaves
		owner = { has_country_modifier = racial_pop_orcish_expulsion }
		OR = {
			has_orcish_minority_trigger = yes
			has_orcish_majority_trigger = yes
		}
		is_city = yes
		
	}

	mean_time_to_happen = {
		months = 6
	
		modifier = {
			factor = 0.75
			owner = {
				num_of_owned_provinces_with = {
					value = 10
					trade_goods = slaves
				}
			}
		}
		
		modifier = {
			factor = 0.25
			owner = {
				num_of_owned_provinces_with = {
					value = 20
					trade_goods = slaves
				}
			}
		}
	}

	option = {
		name = orc_slavery.71.a
		ai_chance = {
			factor = 5
			
			modifier = {
				factor = 10
				owner = {
					OR = {
						ruler_has_personality = cruel_personality
						ruler_has_personality = malevolent_personality
						ruler_has_personality = sinner_personality
					}
				}
			}
		}
		
		owner = {
			add_years_of_income = 0.25
		}
		
		change_trade_goods = unknown
		
		if = {
			limit = {
				has_orcish_majority_trigger = yes
			}
			change_culture = ROOT
			change_religion = ROOT
		}
		
		else_if = {
			limit = {
				has_orcish_minority_trigger = yes
			}
			remove_orcish_minority_size_effect = yes
		}
		
		hidden_effect = {
			REB = {
				subtract_variable = {
					which = num_orc_slaves
					value = 1
				}
			}
		}
	}
}

#Orcish Slavery Sold (purge)
province_event = {
	id = orc_slavery.72
	title = orc_slavery.72.t
	desc = orc_slavery.72.d
	picture = PLAGUE_eventPicture
	goto = root
	
	trigger = {
		trade_goods = slaves
		owner = { has_country_modifier = racial_pop_orcish_purge }
		OR = {
			has_orcish_minority_trigger = yes
			has_orcish_majority_trigger = yes
		}
		is_city = yes

	}

	mean_time_to_happen = {
		months = 3
	
		modifier = {
			factor = 0.75
			owner = {
				num_of_owned_provinces_with = {
					value = 10
					trade_goods = slaves
				}
			}
		}
		
		modifier = {
			factor = 0.25
			owner = {
				num_of_owned_provinces_with = {
					value = 20
					trade_goods = slaves
				}
			}
		}
	}

	option = { 
		name = orc_slavery.71.a
		ai_chance = {
			factor = 5
			
			modifier = {
				factor = 10
				owner = {
					OR = {
						ruler_has_personality = cruel_personality
						ruler_has_personality = malevolent_personality
						ruler_has_personality = sinner_personality
					}
				}
			}
		}
		
		owner = {
			add_years_of_income = 0.1
		}
		
		change_trade_goods = unknown
		add_unrest = 5
		
		if = {
			limit = {
				has_orcish_majority_trigger = yes
			}
			change_culture = ROOT
			change_religion = ROOT
		}
		
		else_if = {
			limit = {
				has_orcish_minority_trigger = yes
			}
			remove_orcish_minority_size_effect = yes
			remove_orcish_minority_size_effect = yes
		}
		
		hidden_effect = {
			REB = {
				subtract_variable = {
					which = num_orc_slaves
					value = 1
				}
			}
		}
	}
}

#Turn Vertesk into city of slaves
province_event = {
	id = orc_slavery.8
	title = orc_slavery.8.t
	desc = orc_slavery.8.d
	picture = TRADE_GOODS_PLANTATION_GOODS_IN_WAREHOUSE_eventPicture
	goto = root
	
	fire_only_once = yes
	
	trigger = {
		province_id = 216
		
		has_global_flag = green_slave_demand
		
		NOT = { trade_goods = slaves }
	}

	mean_time_to_happen = {
		months = 24
	}

	option = { # Justice for Escann, and Profit for Us
		name = orc_slavery.8.a
		ai_chance = {
			factor = 50
		}
		
		change_trade_goods = slaves
		
		add_base_production = 2
		
		owner = {
			add_years_of_income = 1
		}
		
		add_orcish_minority_size_effect = yes
		add_orcish_minority_size_effect = yes
	}
	
	option = { # Nah
		name = orc_slavery.8.b
		ai_chance = {
			factor = 1
		}
		
		owner = { add_prestige = 10 }
	}
}

#Turn Nathalyne into city of slaves
province_event = {
	id = orc_slavery.9
	title = orc_slavery.9.t
	desc = orc_slavery.9.d
	picture = TRADE_GOODS_PLANTATION_GOODS_IN_WAREHOUSE_eventPicture
	goto = root
	
	fire_only_once = yes
	
	trigger = {
		province_id = 451
		
		NOT = { trade_goods = slaves }
		
		has_global_flag = green_slave_demand
	}

	mean_time_to_happen = {
		months = 24
	}

	option = { # Justice for Escann, and Profit for Us
		name = orc_slavery.9.a
		ai_chance = {
			factor = 50
		}
		
		change_trade_goods = slaves
		
		add_base_production = 2
		
		owner = {
			add_years_of_income = 1
		
			large_increase_of_gnollish_tolerance_effect = yes
		}
		
		add_orcish_minority_size_effect = yes
		add_gnollish_minority_size_effect = yes
	}
	
	option = { # Nah
		name = orc_slavery.9.b
		ai_chance = {
			factor = 1
		}
		
		owner = { add_prestige = 10 }
	}
}

#Aelantir: Initialization Event for Player to let em know
country_event = {
	id = orc_slavery.10
	title = orc_slavery.10.t
	desc = orc_slavery.10.d
	picture = COLONIZATION_eventPicture
	
	fire_only_once = yes
	
	trigger = {
		has_global_flag = green_slave_demand
		
		NOT = { has_country_modifier = orcish_slaves_in_colonies }
		NOT = { has_country_modifier = the_abolish_slavery_act }

		ai = no 
		
		any_owned_province = {
			OR = {
				continent = north_america
				continent = south_america
			}
			is_city = yes
		}
		
			#cannorian and bulwari origin as they do the slave trade
		OR = {
			technology_group = tech_cannorian
			technology_group = tech_gerudian
			technology_group = tech_elven
			technology_group = tech_east_elven
			technology_group = tech_gnomish
			technology_group = tech_salahadesi
			technology_group = tech_bulwari
			technology_group = tech_gnollish
			technology_group = tech_goblin
			technology_group = tech_dwarven
			#technology_group = halfling
		}
	}

	mean_time_to_happen = {
		months = 3
	
	}

	option = { # Ye lets import
		name = orc_slavery.10.a
		ai_chance = {
			factor = 1
			
			modifier = {
				factor = 0
				OR = {
					tag = Z43		#Aelnar
					tag = H67		#Rezankand
				}
			}
		}

		add_dip_power = -50
		add_country_modifier = {
			name = orcish_slaves_in_colonies
			duration = -1
		}
		custom_tooltip = tooltip_orcish_slaves_in_colonies
	}
	
	option = { # Nah fam
		name = orc_slavery.10.b
		ai_chance = {
			factor = 1
			
			modifier = {
				factor = 100
				OR = {
					tag = Z43		#Aelnar
					tag = H67		#Rezankand
					
					culture_group = orcish
				}
			}
		}
		
	}
}

#Vertesk City of Chains No More
province_event = {
	id = orc_slavery.11
	title = orc_slavery.11.t
	desc = orc_slavery.11.d
	picture = TRADE_GOODS_PLANTATION_GOODS_IN_WAREHOUSE_eventPicture
	goto = root
	
	fire_only_once = yes
	
	trigger = {
		province_id = 216
		
		trade_goods = slaves
		
		has_global_flag = orcish_slave_trade_banned_in_cannor
	}

	mean_time_to_happen = {
		months = 24
	}

	option = { # Go Cloth (cheapest and no penalty)
		name = orc_slavery.11.a
		ai_chance = {
			factor = 33
		}
		
		change_trade_goods = cloth
	}
	
	option = { # Paper
		name = orc_slavery.11.b
		ai_chance = {
			factor = 33
		}
		
		change_trade_goods = paper
		
		add_base_tax = -1
	}
	
	option = { # Glass
		name = orc_slavery.11.c
		ai_chance = {
			factor = 33
		}
		
		change_trade_goods = glass
		
		add_base_production = -1
	}
	
	option = { # Keep Slaves
		name = orc_slavery.11.dd
		ai_chance = {
			factor = 33
			modifier = {
				factor = 100
				owner = { is_great_power = yes }
			}
		}
		
		add_base_tax = -1
		add_base_production = -1
		
		owner = { add_years_of_income = -1 }
	}
}

#Nathalyne event to remove slaves after ban
province_event = {
	id = orc_slavery.12
	title = orc_slavery.12.t
	desc = orc_slavery.12.d
	picture = TRADE_GOODS_PLANTATION_GOODS_IN_WAREHOUSE_eventPicture
	goto = root
	
	fire_only_once = yes
	
	trigger = {
		province_id = 451
		
		trade_goods = slaves
		
		has_global_flag = orcish_slave_trade_banned_in_cannor
	}

	mean_time_to_happen = {
		months = 120
	}

	option = { # We are a city of thieves and smugglers, so we can profit even more
		name = orc_slavery.12.a
		ai_chance = {
			factor = 99
		}
		
		add_base_tax = 2
		add_base_production = 2
		
		owner = {
			add_years_of_income = 1

			medium_increase_of_gnollish_tolerance_effect = yes
		}
		
		add_orcish_minority_size_effect = yes
		add_gnollish_minority_size_effect = yes
		
	}
	
	option = { # Nah
		name = orc_slavery.12.b
		ai_chance = {
			factor = 1
		}
		
		owner = { add_prestige = 20 }
		
		change_trade_goods = paper
	}
}
