
######################################################
# Muslim Propagation of Religion Trade Policy Events #
#                         							 #
# Written by Henrik Lohmander						 #
######################################################

#Anbennar - changes references to muslim to ravelian

namespace = propagate_religion_events

#Traders in X
country_event = {
	id = propagate_religion_events.1
	title = propagate_religion_events.1.t
	desc = propagate_religion_events.1.d
	picture = SULTAN_AND_MERCHANT_eventPicture
	goto = trade_province
	
	trigger = {
		has_dlc = "Cradle of Civilization"
		NOT = { religion = ravelian }
		any_active_trade_node = {
			any_country = {
				trading_policy_in_node = {
					node = PREV
					policy = propagate_religion
				}
			}
			any_trade_node_member_province = {
				owned_by = ROOT
				NOT = { religion = ravelian }
				has_port = yes
				NOT = { has_province_modifier = trading_settlement }
			}
		}
	}
	
	immediate = {
		hidden_effect = {
			random_active_trade_node = {
				limit = {
					any_country = {
						trading_policy_in_node = {
							node = PREV
							policy = propagate_religion
						}
					}
					any_trade_node_member_province = {
						owned_by = ROOT
						NOT = { religion = ravelian }
						has_port = yes
						NOT = { has_province_modifier = trading_settlement }
					}
				}
				random_trade_node_member_province = {
					limit = {
						owned_by = ROOT
						NOT = { religion = ravelian }
						has_port = yes
						NOT = { has_province_modifier = trading_settlement }
					}
					save_event_target_as = trade_province
				}
			}
		}
	}

	is_triggered_only = yes #Pulse
	
	mean_time_to_happen = {
		days = 1
	}
	
	
	option = {
		name = propagate_religion_events.1.a #Only good can come from this.
		event_target:trade_province = {
			add_province_modifier = {
				name = "trading_settlement"
				duration = 3650
			}
		}
	}
	option = {
		name = propagate_religion_events.1.b #
		event_target:trade_province = {
			add_province_modifier = {
				name = "muslim_traders_controlled"
				duration = 3650
			}
		}
	}
}

#Islamic Missionaries
country_event = {
	id = propagate_religion_events.2
	title = propagate_religion_events.2.t
	desc = propagate_religion_events.2.d
	picture = MYSTIC_IN_PRAYER_eventPicture
	goto = trade_province
	
	trigger = {
		has_dlc = "Cradle of Civilization"
		NOT = { religion = ravelian }
		any_active_trade_node = {
			any_country = {
				trading_policy_in_node = {
					node = PREV
					policy = propagate_religion
				}
			}
			any_trade_node_member_province = {
				owned_by = ROOT
				NOT = { religion = ravelian }
				has_port = yes
				NOT = { has_province_flag = had_missionaries_settle }
				NOT = { has_province_modifier = islamic_missionaries }
			}
		}
	}
	
	immediate = {
		hidden_effect = {
			random_active_trade_node = {
				limit = {
					any_country = {
						trading_policy_in_node = {
							node = PREV
							policy = propagate_religion
						}
					}
					any_trade_node_member_province = {
						owned_by = ROOT
						NOT = { religion = ravelian }
						has_port = yes
						NOT = { has_province_flag = had_missionaries_settle }
						NOT = { has_province_modifier = islamic_missionaries }
					}
				}
				random_country = {
					limit = {
						trading_policy_in_node = {
							node = PREV
							policy = propagate_religion
						}
					}
					save_event_target_as = converter_country #Used in Loc
				}
				random_trade_node_member_province = {
					limit = {
						owned_by = ROOT
						NOT = { religion = ravelian }
						has_port = yes
						NOT = { has_province_flag = had_missionaries_settle }
						NOT = { has_province_modifier = islamic_missionaries }
					}
					save_event_target_as = trade_province
					set_province_flag = had_missionaries_settle
				}
				
			}
		}
	}

	is_triggered_only = yes #Pulse
	
	mean_time_to_happen = {
		days = 1
	}
	
	option = {
		name = propagate_religion_events.2.a #We cannot let authority slip to outside groups such as this one.
		add_legitimacy = 10
	}
	option = {
		name = propagate_religion_events.2.b #They will be a welcome addition to our society.
		event_target:trade_province = {
			add_base_tax = 1
			add_base_production = 1
			add_province_modifier = {
				name = "islamic_missionaries"
				duration = 7300
			}
		}
	}
}

#Muslim Sailors
country_event = {
	id = propagate_religion_events.3
	title = propagate_religion_events.3.t
	desc = propagate_religion_events.3.d
	picture = DHOW_AT_SEA_eventPicture
	
	trigger = {
		has_dlc = "Cradle of Civilization"
		NOT = { religion = ravelian }
		any_active_trade_node = {
			any_country = {
				trading_policy_in_node = {
					node = PREV
					policy = propagate_religion
				}
			}
			any_trade_node_member_province = {
				owned_by = ROOT
				has_port = yes
			}
		}
	}
	
	immediate = {
		hidden_effect = {
			random_active_trade_node = {
				limit = {
					any_country = {
						trading_policy_in_node = {
							node = PREV
							policy = propagate_religion
						}
					}
					any_trade_node_member_province = {
						owned_by = ROOT
						has_port = yes
					}
				}
				random_country = {
					limit = {
						trading_policy_in_node = {
							node = PREV
							policy = propagate_religion
						}
					}
					save_event_target_as = converter_country
				}
				random_trade_node_member_province = {
					limit = {
						owned_by = ROOT
						has_port = yes
					}
					save_event_target_as = sailor_province
				}
			}
			random_list = {
				50 = {
					set_country_flag = sailors_flag
				}
				50 = {
					set_country_flag = captain_flag
				}
			}
			set_saved_name = {
				key = sailor_person
				type = advisor
				scope = event_target:converter_country
			}
		}
	}
	
	is_triggered_only = yes #Pulse
	
	mean_time_to_happen = {
		days = 1
	}
	
	option = {
		name = propagate_religion_events.3.a #Let us encourage these sailors to seek out our ports!
		goto = sailor_province
		custom_tooltip = explain_conversion_strength_in_true_religion_provinces
		event_target:sailor_province = {
			add_province_modifier = {
				name = "muslim_sailor_community"
				duration = 3650
			}
		}
		trigger_switch = {
			on_trigger = has_country_flag
			sailors_flag = {
				clr_country_flag = sailors_flag
				add_yearly_sailors = 2
			}
			captain_flag = {
				clr_country_flag = captain_flag
				define_advisor = {
					name = sailor_person
					type = trader
					religion = event_target:converter_country
					culture = event_target:converter_country
					skill = 2
					discount = yes
				}
			}
		}
		add_years_of_income = -0.75
	}
	option = {
		name = propagate_religion_events.3.b #We have no need of foreigners to man our ships.
		add_legitimacy = 5
	}
	after = {
		clear_saved_name = sailor_person
	}
}
	
#Miracle
country_event = {
	id = propagate_religion_events.4
	title = propagate_religion_events.4.t
	desc = propagate_religion_events.4.d
	picture = MYSTIC_IN_PRAYER_eventPicture
	goto = cured_province
	
	trigger = {
		has_dlc = "Cradle of Civilization"
		any_active_trade_node = {
			any_country = {
				trading_policy_in_node = {
					node = PREV
					policy = propagate_religion
				}
			}
			any_trade_node_member_province = {
				is_capital = no
				owned_by = ROOT
				NOT = { religion = ravelian }
				NOT = { continent = europe }
			}
		}
	}
	
	immediate = {
		hidden_effect = {
			random_active_trade_node = {
				limit = {
					any_country = {
						trading_policy_in_node = {
							node = PREV
							policy = propagate_religion
						}
					}
					any_trade_node_member_province = {
						is_capital = no
						owned_by = ROOT
						NOT = { religion = ravelian }
					}
				}
				random_country = {
					limit = {
						trading_policy_in_node = {
							node = PREV
							policy = propagate_religion
						}
					}
					save_event_target_as = converter_country
				}
				random_trade_node_member_province = {
					limit = {
						is_capital = no
						owned_by = ROOT
						NOT = { religion = ravelian }
						NOT = { continent = europe }
					}
					save_event_target_as = cured_province
				}
			}
			random_list = {
				50 = {
					set_country_flag = theologian_flag
				}
				50 = {
					set_country_flag = philosopher_flag
				}
			}
			set_saved_name = {
				key = miracle_person
				type = advisor
				scope = event_target:converter_country
			}
		}
	}
	
	is_triggered_only = yes #Pulse
	
	mean_time_to_happen = {
		days = 1
	}
	
	option = {
		name = propagate_religion_events.4.a #This is a good sign
		add_stability_or_adm_power = yes
		event_target:cured_province = {
			change_religion = event_target:converter_country
		}
	}
	option = {
		name = propagate_religion_events.4.b #Let us invite this man to [Root.Capital.GetCapitalName], where he can be put to good use.
		event_target:cured_province = {
			change_religion = event_target:converter_country
		}
		trigger_switch = {
			on_trigger = has_country_flag
			philosopher_flag = {
				clr_country_flag = philosopher_flag
				define_advisor = {
					name = miracle_person
					type = philosopher
					culture = event_target:converter_country
					religion = event_target:converter_country
					skill = 2
					discount = yes
				}
			}
			theologian_flag = {
				clr_country_flag = theologian_flag
				define_advisor = {
					name = miracle_person
					type = natural_scientist
					culture = event_target:converter_country
					religion = event_target:converter_country
					skill = 2
					discount = yes
				}
			}
		}
	}
	after = { clear_saved_name = miracle_person }
}

#Mosque built in [mosque_province.GetName]
country_event = {
	id = propagate_religion_events.5
	title = propagate_religion_events.5.t
	desc = propagate_religion_events.5.d
	picture = PRAYER_IN_MOSQUE_eventPicture
	goto = mosque_province
	
	trigger = {
		has_dlc = "Cradle of Civilization"
		NOT = { religion = ravelian }
		any_active_trade_node = {
			any_country = {
				trading_policy_in_node = {
					node = PREV
					policy = propagate_religion
				}
				adm_tech = 4
			}
			any_trade_node_member_province = {
				owned_by = ROOT
				religion = ravelian
				any_neighbor_province = {
					NOT = { religion = ravelian }
					area = PREV
					owned_by = ROOT
					is_capital = no
				}
			}
		}
	}
	
	immediate = {
		hidden_effect = {
			random_active_trade_node = {
				limit = {
					any_country = {
						trading_policy_in_node = {
							node = PREV
							policy = propagate_religion
						}
						adm_tech = 4
					}
					any_trade_node_member_province = {
						owned_by = ROOT
						religion = ravelian
						any_neighbor_province = {
							area = PREV
							NOT = { religion = ravelian }
							owned_by = ROOT
							is_capital = no
						}
					}
				}
				random_country = {
					limit = {
						trading_policy_in_node = {
							node = PREV
							policy = propagate_religion
						}
						adm_tech = 4
					}
					save_event_target_as = converter_country
				}
				random_trade_node_member_province = {
					limit = {
						owned_by = ROOT
						religion = ravelian
						any_province = {
							area = PREV
							NOT = { religion = ravelian }
							owned_by = ROOT
							is_capital = no
						}
					}
					save_event_target_as = mosque_province
				}
			}
		}
	}
	
	is_triggered_only = yes #Pulse
	
	mean_time_to_happen = {
		days = 1
	}
	
	option = {
		name = propagate_religion_events.5.a #We cannot allow this.
		event_target:mosque_province = {
			add_province_modifier = {
				name = "religious_community_isolated" #Allows us to convert them back
				duration = 3650
			}
		}
		event_target:converter_country = {
			add_opinion = {
				modifier = discriminated_our_countrymen
				who = ROOT
			}
		}
	}
	option = {
		name = propagate_religion_events.5.b #Let us provide them with the support they need to build a better community.
		custom_tooltip = explain_conversion_strength_in_true_religion_provinces
		event_target:mosque_province = {
			if = {
				limit = {
					NOT = { has_building = temple }
					NOT = { has_building = cathedral }
					num_free_building_slots = 1
				}
				add_building = temple
			}
			add_base_tax = 1
			area = {
				limit = {
					owned_by = ROOT
					NOT = { province_id = PREV }
					NOT = { religion = PREV } 
				}
				add_local_autonomy = 15
				add_province_modifier = {
					name = "mosque_of_x"
					duration = 3650
				}
			}
		}
	}
}

#Sultan of X?
country_event = {
	id = propagate_religion_events.6
	title = propagate_religion_events.6.t
	desc = propagate_religion_events.6.d
	picture = SULTAN_AND_MERCHANT_eventPicture
	
	trigger = {
		has_dlc = "Cradle of Civilization"
		NOT = { religion = ravelian }
		has_regency = no
		government = monarchy
		#NOT = { tag = ARK }
		NOT = { has_reform = shogunate }
		NOT = { has_reform = wulin }
		NOT = { has_reform = raja_reform }
		NOT = { has_ruler_flag = said_no_to_islamic_titles }
		is_free_or_tributary_trigger = yes
		NOT = { dominant_religion = ROOT }
		capital_scope = {
			religion = ravelian
			is_node_in_trade_company_region = yes
			NOT = { continent = europe }
		}
		NOT = { has_country_modifier = islamic_titles }
	}
	
	is_triggered_only = yes #Pulse
	
	mean_time_to_happen = {
		days = 1
	}
	
	option = {
		name = propagate_religion_events.6.a #
		set_country_flag = sultan_titles_for_non_muslims
		custom_tooltip = sultan_titles_for_non_muslims_tooltip
		add_country_modifier = {
			name = "islamic_titles"
			duration = -1
		}
		hidden_effect = {
			every_known_country = {
				limit = {
					religion = ravelian
				}
				add_opinion = {
					modifier = adopted_islamic_titles
					who = ROOT
				}
			}
		}
	}
	option = {
		name = propagate_religion_events.6.b #
		set_ruler_flag = said_no_to_islamic_titles
		add_ruler_modifier = {
			name = "defended_traditional_kingship"
		}
	}
}

#Joining the Community of the Faithful
country_event = {
	id = propagate_religion_events.7
	title = propagate_religion_events.7.t
	desc = propagate_religion_events.7.d
	picture = SULTAN_AND_MERCHANT_eventPicture
	
	is_triggered_only = yes
	
	trigger = {
		has_dlc = "Cradle of Civilization"
		religion = ravelian
		has_religious_school = no
		OR = {
			has_ruler_flag = said_no_to_islamic_titles
			capital_scope = {
				is_node_in_trade_company_region = yes
			}
		}

		#Anbennar
		NOT = { capital_scope = { continent = europe } }	#this is to prevent this firing for every fucker who converts LOL
	}
	
	immediate = {
		hidden_effect = {
			clr_country_flag = sultan_titles_for_non_muslims
		}
	}

	option = {
		name = propagate_religion_events.7.a # Long live the [Root.Monarch.GetTitle]!
		custom_tooltip = sultan_conversion_tooltip
		hidden_effect = {
			every_country = {
				limit = {
					has_opinion_modifier = {
						who = ROOT
						modifier = adopted_islamic_titles
					}
				}
				remove_opinion = {
					who = ROOT
					modifier = adopted_islamic_titles
				}
			}
			every_known_country = {
				limit = {
					religion = ravelian
				}
				add_mutual_opinion_modifier_effect = {
					scope_country = ROOT
					opinion_modifier = converted_to_islam
				}
			}
		}
	}
}

#Travelling Scholar
#Can happen to both Muslim and non Muslim Countries
country_event = {
	id = propagate_religion_events.8
	title = propagate_religion_events.8.t
	desc = propagate_religion_events.8.d
	picture = MUSLIM_SCHOLAR_WRITING_eventPicture
	
	trigger = {
		has_dlc = "Cradle of Civilization"
		any_active_trade_node = {
			any_country = {
				NOT = { tag = ROOT }
				trading_policy_in_node = {
					node = PREV
					policy = propagate_religion
				}
			}
			any_trade_node_member_province = {
				owned_by = ROOT
				is_capital = yes
				NOT = { continent = europe }
			}
		}
	}
	
	immediate = {
		hidden_effect = {
			random_active_trade_node = {
				limit = {
					any_country = {
						NOT = { tag = ROOT }
						trading_policy_in_node = {
							node = PREV
							policy = propagate_religion
						}
					}
					any_trade_node_member_province = {
						owned_by = ROOT
						is_capital = yes
						NOT = { continent = europe }
					}
				}
				random_country = {
					limit = {
						trading_policy_in_node = {
							node = PREV
							policy = propagate_religion
						}
					}
					save_event_target_as = converter_country
				}
			}
			random_list = {
				33 = { set_country_flag = qadi }
				33 = { set_country_flag = mufti }
				33 = { set_country_flag = sufi }
			}
			set_saved_name = {
				key = qadi_person
				type = advisor
				scope = event_target:converter_country
			}
		}
	}
	
	is_triggered_only = yes #Pulse
	
	mean_time_to_happen = {
		days = 1
	}
	
	option = {
		name = propagate_religion_events.8.a #We have use of this man. Let us offer him a place at our court!
		trigger_switch = {
			on_trigger = has_country_flag
			qadi = {
				clr_country_flag = qadi
				define_advisor = {
					type = natural_scientist
					name = qadi_person
					skill = 2
					culture = event_target:converter_country
					religion = event_target:converter_country
					discount = yes
				}
			}
			mufti = {
				clr_country_flag = mufti
				define_advisor = {
					type = theologian
					skill = 2
					name = qadi_person
					culture = event_target:converter_country
					religion = event_target:converter_country
					discount = yes
				}
			}
			sufi = {
				clr_country_flag = sufi
				define_advisor = {
					type = philosopher
					name = qadi_person
					skill = 2
					culture = event_target:converter_country
					religion = event_target:converter_country
					discount = yes
				}
			}
		}
	}
	option = {
		name = propagate_religion_events.8.b #Let us learn as much as we can about the state of things abroad.
		add_dip_power = 15
		add_mil_power = 15
		event_target:converter_country = {
			add_spy_network_from = {
				who = ROOT
				value = 75
			}
		}
	}
	after = {
		clear_saved_name = qadi_person
	}
}

#Muslim Chiefs
#Can happen to both muslim and non-muslim countries in provinces that aren't muslim.
#Can also happen to the tag conducting the propagation.
country_event = {
	id = propagate_religion_events.9
	title = propagate_religion_events.9.t
	desc = propagate_religion_events.9.d
	picture = HEIR_AND_FOREIGN_ADVISOR_eventPicture
	goto = hinterland_province
	
	trigger = {
		has_dlc = "Cradle of Civilization"
		any_active_trade_node = {
			any_country = {
				trading_policy_in_node = {
					node = PREV
					policy = propagate_religion
				}
			}
			any_trade_node_member_province = {
				owned_by = ROOT
				NOT = { religion = ravelian }
				is_capital = no
				NOT = { has_province_modifier = chiefs_with_pretensions }
				NOT = { continent = europe }
			}
		}
	}
	
	is_triggered_only = yes #Pulse
	
	immediate = {
		hidden_effect = {
			random_active_trade_node = {
				limit = {
					any_country = {
						trading_policy_in_node = {
							node = PREV
							policy = propagate_religion
						}
					}
					any_trade_node_member_province = {
						owned_by = ROOT
						NOT = { religion = ravelian }
						is_capital = no
						NOT = { has_province_modifier = chiefs_with_pretensions }
						NOT = { continent = europe }
					}
				}
				random_country = {
					limit = {
						trading_policy_in_node = {
							node = PREV
							policy = propagate_religion
						}
					}
					save_event_target_as = converter_country
				}
				random_trade_node_member_province = {
					limit = {
						is_capital = no
						owned_by = ROOT
						NOT = { religion = ravelian }
						NOT = { has_province_modifier = chiefs_with_pretensions }
						NOT = { continent = europe }
					}
					save_event_target_as = hinterland_province
				}
			}
		}
	}
	
	mean_time_to_happen = {
		days = 1
	}	
	
	option = {
		name = propagate_religion_events.9.a #Ridiculous  
		event_target:hinterland_province = {
			change_religion = event_target:converter_country
			add_province_modifier = {
				name = "chiefs_with_pretensions"
				duration = 3650
			}
		}
	}
}

#Islamic Syncretism
country_event = {
	id = propagate_religion_events.10
	title = propagate_religion_events.10.t
	desc = propagate_religion_events.10.d
	picture = MYSTICS_DANCING_eventPicture
	
	trigger = {
		has_dlc = "Cradle of Civilization"
		NOT = { religion = ravelian }
		NOT = { has_country_modifier = rejection_of_syncretism }
		any_owned_province = {
			religion = ravelian
			has_owner_culture = yes
			is_node_in_trade_company_region = yes
		}
		any_active_trade_node = {
			any_country = {
				trading_policy_in_node = {
					node = PREV
					policy = propagate_religion
				}
			}
			any_trade_node_member_province = {
				owned_by = ROOT
				NOT = { religion = ravelian }
				is_capital = no
			}
		}
	}
	
	is_triggered_only = yes #Pulse
	
	mean_time_to_happen = {
		days = 1
	}
	
	immediate = {
		hidden_effect = {
			random_active_trade_node = {
				limit = {
					any_country = {
						trading_policy_in_node = {
							node = PREV
							policy = propagate_religion
						}
					}
					any_trade_node_member_province = {
						owned_by = ROOT
						NOT = { religion = ravelian }
						is_capital = no
					}
				}
				random_country = {
					limit = {
						trading_policy_in_node = {
							node = PREV
							policy = propagate_religion
						}
					}
					save_event_target_as = converter_country
				}
				random_trade_node_member_province = {
					limit = {
						owned_by = ROOT
						NOT = { religion = ravelian }
						is_capital = no
					}
					save_event_target_as = islamic_syncretism_province
				}
			}
		}
	}
	
	option = {
		name = propagate_religion_events.10.a #
		add_ruler_modifier = {
			name = "rejection_of_syncretism"
			duration = 3650
		}
	}
	option = {
		name = propagate_religion_events.10.b #
		goto = islamic_syncretism_province
		add_stability_or_adm_power = yes
		event_target:islamic_syncretism_province = {
			change_religion = event_target:converter_country
		}
	}
}

#Muslim Refugees
province_event = {
	id = propagate_religion_events.11
	title = propagate_religion_events.11.t
	desc = propagate_religion_events.11.d
	picture = SOUP_KITCHEN_eventPicture
	goto = root
	
	trigger = {
		has_dlc = "Cradle of Civilization"
		is_node_in_trade_company_region = yes
		has_empty_adjacent_province = yes
		NOT = { continent = europe }
		owner = {
			NOT = { religion = ravelian }
		}
		any_country = {
			NOT = { war_with = ROOT }
			trading_policy_in_node = {
				node = ROOT
				policy = propagate_religion
			}
		}
	}
	
	is_mtth_scaled_to_size = 1
	
	immediate = {
		hidden_effect = {
			random_country = {
				limit = {
					NOT = { war_with = ROOT }
					trading_policy_in_node = {
						node = ROOT
						policy = propagate_religion
					}
				}
				save_event_target_as = converter_country
			}
		}
	}
	
	mean_time_to_happen = {
		months = 600
	}
	
	option = {
		name = propagate_religion_events.11.a #
		random_empty_neighbor_province = {
			create_colony = 1000
			change_religion = event_target:converter_country
			change_culture = event_target:converter_country
		}
	}
	option = {
		name = propagate_religion_events.11.b
		owner = {
			add_legitimacy = 10
		}
	}
}