
namespace = revolutionary_republic_factions

########################################
# Revolutionary Republic Faction Events
#
# written by Henrik Lohmander
########################################

########################################
# Factions in conflict
########################################

#Turmoil in the Army.
#Positive Choice
country_event = {
	id = revolutionary_republic_factions.0
	title = "revolutionary_republic_factions.0.t"
	desc = "revolutionary_republic_factions.0.d"
	picture = DEBATE_REPUBLICAN_eventPicture

	is_triggered_only = yes

	trigger = {
		OR = {
			has_dlc = "Rights of Man"
			has_dlc = "Emperor"
		}
		OR = {
			is_revolutionary_republic_trigger = yes
			has_reform = revolutionary_empire_reform
		}
	}

	mean_time_to_happen = {
		days = 1
	}

	option = {
		name = "revolutionary_republic_factions.0.a"
		if = {
			limit = {
				has_dlc = "Emperor"
			}
			add_revolutionary_zeal = 5
		}
		else = {
			add_republican_tradition = 5
		}
		if = {
			limit = {
				has_dlc = "Rights of Man"
			}
			add_faction_influence = {
				faction = rr_jacobins
				influence = 10
			}
		}
	}
	option = {
		name = "revolutionary_republic_factions.0.b"
		add_yearly_manpower = 0.25
		if = {
			limit = {
				has_dlc = "Rights of Man"
			}
			add_faction_influence = {
				faction = rr_royalists
				influence = 10
			}
		}
	}
	option = {
		name = "revolutionary_republic_factions.0.c"
		add_revolutionary_zeal = -5
		add_army_tradition = 10
		add_faction_influence = {
			faction = rr_girondists
			influence = 10
		}
	}
}

# De-Christianization of the Clergy
# Negative Choice
country_event = {
	id = revolutionary_republic_factions.1
	title = "revolutionary_republic_factions.1.t"
	desc = "revolutionary_republic_factions.1.d"
	picture = DEBATE_REPUBLICAN_eventPicture

	is_triggered_only = yes

	trigger = {
		OR = {
			has_dlc = "Rights of Man"
			has_dlc = "Emperor"
		}
		OR = {
			is_revolutionary_republic_trigger = yes
			has_reform = revolutionary_empire_reform
		}
		NOT = { has_country_modifier = state_atheism }
		NOT = { has_country_modifier = clerical_support }
		NOT = { has_country_modifier = clerical_pragmatism }
	}

	mean_time_to_happen = {
		days = 1
	}

	option = {
		name = "revolutionary_republic_factions.1.a"
		trigger = {
			NOT = { has_country_modifier = cult_of_reason }
		}
		add_revolutionary_zeal = -5
		add_country_modifier = {
			name = "state_atheism"
			duration = 1825
		}
		if = {
			limit = {
				has_dlc = "Rights of Man"
			}
			add_faction_influence = {
				faction = rr_jacobins
				influence = 10
			}
		}
	}
	
	option = {
		name = "revolutionary_republic_factions.1.a2"
		highlight = yes
		trigger = {
			has_country_modifier = cult_of_reason
		}
		add_revolutionary_zeal = 5
		add_country_modifier = {
			name = "state_atheism"
			duration = 1825
		}
		if = {
			limit = {
				has_dlc = "Rights of Man"
			}
			add_faction_influence = {
				faction = rr_jacobins
				influence = 10
			}
		}
	}

	option = {
		name = "revolutionary_republic_factions.1.b"
		trigger = {
			NOT = { has_country_modifier = cult_of_reason }
		}
		add_revolutionary_zeal = 5
		add_country_modifier = {
			name = "clerical_support"
			duration = 1825
		}
		if = {
			limit = {
				has_dlc = "Rights of Man"
			}
			add_faction_influence = {
				faction = rr_royalists
				influence = 10
			}
		}
	}
	option = {
		name = "revolutionary_republic_factions.1.b2"
		add_revolutionary_zeal = 10
		trigger = {
			has_country_modifier = cult_of_reason
		}
		add_country_modifier = {
			name = "clerical_support"
			duration = 1825
		}
		if = {
			limit = {
				has_dlc = "Rights of Man"
			}
			add_faction_influence = {
				faction = rr_royalists
				influence = 10
			}
		}
	}
	option = {
		name = "revolutionary_republic_factions.1.c"
		add_country_modifier = {
			name = "clerical_pragmatism"
			duration = 1825
		}
		if = {
			limit = {
				has_dlc = "Rights of Man"
			}
			add_faction_influence = {
				faction = rr_girondists
				influence = 10
			}
		}
	}
}

# Handling of the Mob
# Positive choice
country_event = {
	id = revolutionary_republic_factions.2
	title = "revolutionary_republic_factions.2.t"
	desc = "revolutionary_republic_factions.2.d"
	picture = DEBATE_REPUBLICAN_eventPicture

	is_triggered_only = yes

	trigger = {
		OR = {
			has_dlc = "Rights of Man"
			has_dlc = "Emperor"
		}
		OR = {
			is_revolutionary_republic_trigger = yes
			has_reform = revolutionary_empire_reform
		}
	}

	mean_time_to_happen = {
		days = 1
	}

	option = {
		name = "revolutionary_republic_factions.2.a"
		if = {
			limit = {
				has_dlc = "Emperor"
			}
			add_revolutionary_zeal = 5
		}
		else = {
			add_prestige = 10
		}
		if = {
			limit = {
				has_dlc = "Rights of Man"
			}
			add_faction_influence = {
				faction = rr_jacobins
				influence = 10
			}
		}
	}

	option = {
		name = "revolutionary_republic_factions.2.b"
		add_yearly_manpower = 0.35
		if = {
			limit = {
				has_dlc = "Rights of Man"
			}
			add_faction_influence = {
				faction = rr_girondists
				influence = 10
			}
		}
	}
	
	option = {
		name = "revolutionary_republic_factions.2.c"
		add_revolutionary_zeal = -5
		add_dip_power = 25
		if = {
			limit = {
				has_dlc = "Rights of Man"
			}
			add_faction_influence = {
				faction = rr_royalists
				influence = 10
			}
		}
	}
}

# Wavering Loyalty
country_event = {
	id = revolutionary_republic_factions.3
	title = "revolutionary_republic_factions.3.t"
	picture = DEBATE_REPUBLICAN_eventPicture

	desc = {
		trigger = {
			has_country_flag = defecting_girondist
		}
		desc = revolutionary_republic_factions.3.da
	}
	desc = {
		trigger = {
			has_country_flag = defecting_royalist
		}
		desc = revolutionary_republic_factions.3.db
	}
	desc = {
		trigger = {
			has_country_flag = defecting_jacobin
		}
		desc = revolutionary_republic_factions.3.dc
	}
	
	is_triggered_only = yes

	trigger = {
		has_faction = rr_girondists
	}

	mean_time_to_happen = {
		days = 1
	}

	immediate = {
		hidden_effect = {
			random_list = {
				33 = {
					set_country_flag = defecting_jacobin
				}
				
				33 = {
					set_country_flag = defecting_royalist
				}
				
				33 = {
					set_country_flag = defecting_girondist
				}
			}
		}
	}
	
	option = {
		name = "revolutionary_republic_factions.3.a"
		trigger_switch = {
			on_trigger = has_country_flag
			defecting_girondist = {
				add_faction_influence = {
					faction = rr_girondists
					influence = -10
				}
				clr_country_flag = defecting_girondist
			}
			defecting_royalist = {
				add_faction_influence = {
					faction = rr_royalists
					influence = -10
				}
				clr_country_flag = defecting_royalist
			}
			defecting_jacobin = {
				add_faction_influence = {
					faction = rr_jacobins
					influence = -10
				}
				clr_country_flag = defecting_jacobin
			}
		}
	}
}

########################################
# Bonuses for Faction in Power
########################################

# Revolutionary Tribunals
country_event = {
	id = revolutionary_republic_factions.4
	title = "revolutionary_republic_factions.4.t"
	desc = "revolutionary_republic_factions.4.d"
	picture = DEBATE_REPUBLICAN_eventPicture

	is_triggered_only = yes

	trigger = {
		has_faction = rr_jacobins
		faction_in_power = rr_jacobins
		NOT = {
			has_country_modifier = revolutionary_tribunals
		}
	}

	mean_time_to_happen = {
		days = 1
	}

	option = {
		name = "revolutionary_republic_factions.4.a"
		add_revolutionary_zeal = 5
		add_country_modifier = {
			name = "revolutionary_tribunals"
			duration = 1825
		}
		add_faction_influence = {
			faction = rr_jacobins
			influence = 5
		}
	}
}

# Consolidation of Power
country_event = {
	id = revolutionary_republic_factions.5
	title = "revolutionary_republic_factions.5.t"
	desc = "revolutionary_republic_factions.5.d"
	picture = DEBATE_REPUBLICAN_eventPicture

	is_triggered_only = yes

	trigger = {
		has_faction = rr_royalists
		faction_in_power = rr_royalists
		NOT = {
			has_country_modifier = consolidation_of_power
		}
	}

	mean_time_to_happen = {
		days = 1
	}

	option = {
		name = "revolutionary_republic_factions.5.a"
		add_revolutionary_zeal = -5
		add_country_modifier = {
			name = "consolidation_of_power"
			duration = 1825
		}
		add_faction_influence = {
			faction = rr_royalists
			influence = 5
		}
	}
}

# Constitutional Project
country_event = {
	id = revolutionary_republic_factions.6
	title = "revolutionary_republic_factions.6.t"
	desc = "revolutionary_republic_factions.6.d"
	picture = DEBATE_REPUBLICAN_eventPicture

	is_triggered_only = yes

	trigger = {
		has_faction = rr_girondists
		faction_in_power = rr_girondists
		NOT = {
			has_country_modifier = constitutional_project
		}
	}

	mean_time_to_happen = {
		days = 1
	}

	option = {
		name = "revolutionary_republic_factions.6.a"
		add_revolutionary_zeal = 5
		add_country_modifier = {
			name = "constitutional_project"
			duration = 1825
		}
		add_faction_influence = {
			faction = rr_girondists
			influence = 5
		}
	}
}

########################################
# Penalties for Faction not in Power
########################################

# Lack of Men of Letters
country_event = {
	id = revolutionary_republic_factions.7
	title = "revolutionary_republic_factions.7.t"
	desc = {
		trigger = {
			has_faction = rr_girondists
		}
		desc = "revolutionary_republic_factions.7.d"
	}
	desc = {
		trigger = {
			NOT = { has_faction = rr_girondists }
		}
		desc = "revolutionary_republic_factions.7.d2"
	}
	picture = DEBATE_REPUBLICAN_eventPicture

	is_triggered_only = yes

	trigger = {
		OR = {
			has_dlc = "Rights of Man"
			has_dlc = "Emperor"
		}
		OR = {
			is_revolutionary_republic_trigger = yes
			has_reform = revolutionary_empire_reform
		}
		if = {
			limit = {
				has_faction = rr_girondists
			}
			NOT = { faction_in_power = rr_girondists }
		}
	}

	mean_time_to_happen = {
		days = 1
	}

	option = {
		name = "revolutionary_republic_factions.7.a"
		add_stability = -1
		add_country_modifier = {
			name = "suffering_administration"
			duration = 1825
		}
	}

	option = {
		name = "revolutionary_republic_factions.7.b"
		add_revolutionary_zeal = -5
		add_country_modifier = {
			name = "suffering_administration"
			duration = 913
		}
		if = {
			limit = {
				has_dlc = "Rights of Man"
			}
			add_faction_influence = {
				faction = rr_royalists
				influence = 5
			}
		}
	}
}

# Popular General
country_event = {
	id = revolutionary_republic_factions.8
	title = "revolutionary_republic_factions.8.t"
	desc = "revolutionary_republic_factions.8.d"
	picture = DEBATE_REPUBLICAN_eventPicture

	is_triggered_only = yes

	trigger = {
		OR = {
			has_dlc = "Rights of Man"
			has_dlc = "Emperor"
		}
		OR = {
			is_revolutionary_republic_trigger = yes
			has_reform = revolutionary_empire_reform
		}
		NOT = { faction_in_power = rr_royalists }
	}

	mean_time_to_happen = {
		days = 1
	}

	option = {
		name = "revolutionary_republic_factions.8.a" #Unfortunate but inevitable.
		add_country_modifier = {
			name = "imperial_faction_in_army"
			duration = 1825
		}
	}

	option = {
		name = "revolutionary_republic_factions.8.b" #Send them all away when we can.
		add_revolutionary_zeal = -5
		add_army_tradition = -10
		add_country_modifier = {
			name = "imperial_faction_in_army"
			duration = 913
		}
		if = {
			limit = {
				has_dlc = "Rights of Man"
			}
			add_faction_influence = {
				faction = rr_royalists
				influence = 5
			}
		}
	}
}

# Massacre of X
country_event = {
	id = revolutionary_republic_factions.9
	title = "revolutionary_republic_factions.9.t"
	desc = {
		trigger = {
			has_faction = rr_jacobins
		}
		desc = "revolutionary_republic_factions.9.d"
	}
	desc = {
		trigger = {
			NOT = { has_faction = rr_jacobins }
		}
		desc = "revolutionary_republic_factions.9.d2"
	}
	picture = DEBATE_REPUBLICAN_eventPicture

	is_triggered_only = yes

	trigger = {
		OR = {
			has_dlc = "Rights of Man"
			has_dlc = "Emperor"
		}
		OR = {
			is_revolutionary_republic_trigger = yes
			has_reform = revolutionary_empire_reform
		}
		NOT = { faction_in_power = rr_jacobins }
		NOT = {
			capital_scope = {
				has_province_modifier = radical_massacres
			}
		}
	}

	mean_time_to_happen = {
		days = 1
	}

	option = {
		name = "revolutionary_republic_factions.9.a" #This can never end well. 
		add_revolutionary_zeal = 5
		capital_scope = {
			add_province_modifier = {
				name = "radical_massacres"
				duration = 1825
			}
		}
	}
	
	option = {
		name = "revolutionary_republic_factions.9.b" #Bring in the troops!
		add_revolutionary_zeal = -5
		capital_scope = {
			spawn_rebels = {
				type = revolutionary_rebels
				size = 1
			}
			add_province_modifier = {
				name = "radical_massacres"
				duration = 913
			}
		}
		add_faction_influence = {
			faction = rr_jacobins
			influence = 5
		}
	}
}
